# Blender v2.76 (sub 0) OBJ File: ''
# www.blender.org
o Cube
v 1.000000 -1.000000 -1.000000
v 1.000000 -1.000000 1.000000
v -1.000000 -1.000000 1.000000
v -1.000000 -1.000000 -1.000000
v 1.000000 1.000000 -0.999999
v 0.999999 1.000000 1.000001
v -1.000000 1.000000 1.000000
v -1.000000 1.000000 -1.000000
v 1.000000 -1.000000 -1.000000
v 1.000000 -1.000000 -1.000000
v 1.000000 -1.000000 1.000000
v 1.000000 -1.000000 1.000000
v -1.000000 -1.000000 -1.000000
v -1.000000 -1.000000 -1.000000
v 1.000000 1.000000 -0.999999
v 1.000000 1.000000 -0.999999
v -1.000000 -1.000000 1.000000
v -1.000000 -1.000000 1.000000
v 0.999999 1.000000 1.000001
v 0.999999 1.000000 1.000001
v -1.000000 1.000000 1.000000
v -1.000000 1.000000 1.000000
v -1.000000 1.000000 -1.000000
v -1.000000 1.000000 -1.000000
vt 0.000244 0.997122
vt 0.000244 0.665156
vt 0.499756 0.665156
vt 0.000244 0.332211
vt 0.000244 0.000244
vt 0.499755 0.000244
vt 0.999756 0.997122
vt 0.500244 0.997122
vt 0.500244 0.665156
vt 0.499755 0.664667
vt 0.000244 0.664667
vt 0.000244 0.332700
vt 0.500244 0.664667
vt 0.500244 0.332700
vt 0.999756 0.332700
vt 0.999756 0.332211
vt 0.500245 0.332211
vt 0.500244 0.000244
vt 0.499756 0.997122
vt 0.499756 0.332211
vt 0.999756 0.665156
vt 0.499756 0.332700
vt 0.999756 0.664667
vt 0.999756 0.000244
vn 0.000000 -1.000000 0.000000
vn 0.000000 1.000000 0.000000
vn 1.000000 0.000000 0.000000
vn -0.000000 0.000000 1.000000
vn -1.000000 -0.000000 -0.000000
vn 0.000000 0.000000 -1.000000
s off
f 11/1/1 17/2/1 13/3/1
f 24/4/2 22/5/2 20/6/2
f 15/7/3 19/8/3 12/9/3
f 6/10/4 21/11/4 18/12/4
f 3/13/5 7/14/5 23/15/5
f 1/16/6 4/17/6 8/18/6
f 9/19/1 11/1/1 13/3/1
f 16/20/2 24/4/2 20/6/2
f 10/21/3 15/7/3 12/9/3
f 2/22/4 6/10/4 18/12/4
f 14/23/5 3/13/5 23/15/5
f 5/24/6 1/16/6 8/18/6
